{
    "machine_info": {
        "node": "cantor",
        "processor": "x86_64",
        "machine": "x86_64",
        "python_compiler": "GCC 8.2.0",
        "python_implementation": "CPython",
        "python_implementation_version": "3.6.7",
        "python_version": "3.6.7",
        "python_build": [
            "default",
            "Oct 22 2018 11:32:17"
        ],
        "release": "4.15.0-45-generic",
        "system": "Linux",
        "cpu": {
            "vendor_id": "GenuineIntel",
            "hardware": "unknown",
            "brand": "Intel(R) Core(TM) i7-7500U CPU @ 2.70GHz"
        }
    },
    "commit_info": {
        "id": "32d5d19cbf8fa07081b66e7f04a8f40050dea435",
        "time": "2019-03-03T01:18:42+01:00",
        "author_time": "2019-03-03T01:18:42+01:00",
        "dirty": true,
        "project": "pyvallex",
        "branch": "master"
    },
    "benchmarks": [
        {
            "group": null,
            "name": "test_parse_verbs",
            "fullname": "tests/benchmarks/test_parser.py::test_parse_verbs",
            "params": null,
            "param": null,
            "extra_info": {},
            "options": {
                "disable_gc": false,
                "timer": "process_time",
                "min_rounds": 5,
                "max_time": 1.0,
                "min_time": 5e-06,
                "warmup": false
            },
            "stats": {
                "min": 0.09228451299999918,
                "max": 0.11242455700000065,
                "mean": 0.10015729914285691,
                "stddev": 0.00786832711931398,
                "rounds": 7,
                "median": 0.10216676499999977,
                "iqr": 0.012499525750000906,
                "q1": 0.09246138974999951,
                "q3": 0.10496091550000042,
                "iqr_outliers": 0,
                "stddev_outliers": 2,
                "outliers": "2;0",
                "ld15iqr": 0.09228451299999918,
                "hd15iqr": 0.11242455700000065,
                "ops": 9.984294789875218,
                "total": 0.7011010939999984,
                "iterations": 1
            }
        }
    ],
    "datetime": "2019-03-03T16:37:14.862925",
    "version": "3.2.2"
}