{
    "machine_info": {
        "node": "cantor",
        "processor": "x86_64",
        "machine": "x86_64",
        "python_compiler": "GCC 8.2.0",
        "python_implementation": "CPython",
        "python_implementation_version": "3.6.7",
        "python_version": "3.6.7",
        "python_build": [
            "default",
            "Oct 22 2018 11:32:17"
        ],
        "release": "4.15.0-45-generic",
        "system": "Linux",
        "cpu": {
            "vendor_id": "GenuineIntel",
            "hardware": "unknown",
            "brand": "Intel(R) Core(TM) i7-7500U CPU @ 2.70GHz"
        }
    },
    "commit_info": {
        "id": "4f8a7a9a0e6d59c080f92473cfb525b5a8f5b464",
        "time": "2019-03-04T22:36:15+01:00",
        "author_time": "2019-03-04T22:36:15+01:00",
        "dirty": false,
        "project": "pyvallex",
        "branch": "master"
    },
    "benchmarks": [
        {
            "group": null,
            "name": "test_parse_verbs",
            "fullname": "tests/benchmarks/test_parser.py::test_parse_verbs",
            "params": null,
            "param": null,
            "extra_info": {},
            "options": {
                "disable_gc": false,
                "timer": "process_time",
                "min_rounds": 5,
                "max_time": 1.0,
                "min_time": 5e-06,
                "warmup": false
            },
            "stats": {
                "min": 0.09401925900000307,
                "max": 0.16066085900000004,
                "mean": 0.11530076244444526,
                "stddev": 0.0198399597865677,
                "rounds": 9,
                "median": 0.11090596700000077,
                "iqr": 0.019511514500001326,
                "q1": 0.10354397824999939,
                "q3": 0.12305549275000072,
                "iqr_outliers": 1,
                "stddev_outliers": 2,
                "outliers": "2;1",
                "ld15iqr": 0.09401925900000307,
                "hd15iqr": 0.16066085900000004,
                "ops": 8.672969534627532,
                "total": 1.0377068620000074,
                "iterations": 1
            }
        }
    ],
    "datetime": "2019-03-04T21:38:37.748538",
    "version": "3.2.2"
}